{
	"id": "ebf5e0d9-6b12-4f0f-95ae-76ddc37e7d30",
	"name": "c:\\_cmd",
	"description": "",
	"order": [
		"34b42d7b-d442-0ad9-18e6-24353d5c11c0"
	],
	"folders": [],
	"folders_order": [],
	"timestamp": 1541466992723,
	"owner": 0,
	"public": false,
	"requests": [
		{
			"id": "34b42d7b-d442-0ad9-18e6-24353d5c11c0",
			"headers": "",
			"headerData": [],
			"url": "localhost:8900/usuarios",
			"queryParams": [],
			"pathVariables": {},
			"pathVariableData": [],
			"preRequestScript": null,
			"method": "GET",
			"collectionId": "ebf5e0d9-6b12-4f0f-95ae-76ddc37e7d30",
			"data": null,
			"dataMode": "params",
			"name": "localhost:8900/usuarios",
			"description": "",
			"descriptionFormat": "html",
			"time": 1541467022842,
			"version": 2,
			"responses": [],
			"tests": null,
			"currentHelper": "normal",
			"helperAttributes": {}
		}
	]
}